<?xml version="1.0" encoding="UTF-16" ?>
<Application>
  <forms>
    <action type="add">
      <form appformnumber="frm_MAX_104" FormType="frm_MAX_104" type="0" BorderStyle="0" uid="frm_MAX_104" title="Batch Selection" visible="1" default_button="" pane="0" color="0" left="289" top="26" width="917" height="499" client_width="500" client_height="306" AutoManaged="0" SupportedModes="15" ObjectType="" modality="0">
        <datasources>
          <dbdatasources>
            <action type="add"/>
          </dbdatasources>
          <userdatasources>
            <action type="add"/>
          </userdatasources>
          <DataTables>
            <DataTable Uid="DT_0">
              <Columns>
                <Column Uid="Col_0" Type="1" MaxLength="254"/>
                <Column Uid="Col_1" Type="1" MaxLength="254"/>
              </Columns>
            </DataTable>
            <DataTable Uid="DT_2">
              <Columns>
                <Column Uid="Col_0" Type="1" MaxLength="254"/>
                <Column Uid="Col_1" Type="1" MaxLength="254"/>
                <Column Uid="Col_2" Type="1" MaxLength="254"/>
                <Column Uid="Col_3" Type="1" MaxLength="254"/>
              </Columns>
            </DataTable>
            <DataTable Uid="DT_3">
              <Columns>
                <Column Uid="Col_0" Type="1" MaxLength="254"/>
                <Column Uid="Col_1" Type="1" MaxLength="254"/>
                <Column Uid="Col_2" Type="1" MaxLength="254"/>
              </Columns>
            </DataTable>
          </DataTables>
        </datasources>
        <Menus/>
        <items>
          <action type="add">
            <item uid="1" type="8" left="6" tab_order="0" width="220" top="6" height="14" visible="1" enabled="1" from_pane="0" to_pane="0" disp_desc="0" right_just="0" description="" linkto="" forecolor="-1" backcolor="-1" text_style="0" font_size="-1" supp_zeros="0" AffectsFormMode="1">
              <AutoManagedAttribute/>
              <specific caption="Rows From Document"/>
            </item>
            <item uid="2" type="4" left="75" tab_order="0" width="65" top="442" height="19" visible="1" enabled="1" from_pane="0" to_pane="0" disp_desc="0" right_just="0" description="" linkto="" forecolor="-1" backcolor="-1" text_style="0" font_size="-1" supp_zeros="0" AffectsFormMode="1">
              <AutoManagedAttribute/>
              <specific caption=""/>
            </item>
            <item uid="3" type="4" left="7" tab_order="0" width="65" top="442" height="19" visible="1" enabled="1" from_pane="0" to_pane="0" disp_desc="0" right_just="0" description="" linkto="" forecolor="-1" backcolor="-1" text_style="0" font_size="-1" supp_zeros="0" AffectsFormMode="1">
              <AutoManagedAttribute/>
              <specific caption="Save"/>
            </item>
            <item uid="4" type="128" left="9" tab_order="0" width="892" top="31" height="169" visible="1" enabled="1" from_pane="0" to_pane="0" disp_desc="0" right_just="0" description="" linkto="" forecolor="-1" backcolor="-1" text_style="0" font_size="-1" supp_zeros="0" AffectsFormMode="1">
              <AutoManagedAttribute/>
              <specific SelectionMode="0" DataTable="DT_0" CollapseLevel="0">
                <RowHeaders Width="22"/>
                <GridColumns>
                  <GridColumn UniqueID="Col_0" Title="Col_0" Visible="1" Editable="1" AffectsFormMode="1" RightJustified="0" Type="16" Width="426">
                    <ValidValues/>
                  </GridColumn>
                  <GridColumn UniqueID="Col_1" Title="Col_1" Visible="1" Editable="1" AffectsFormMode="1" RightJustified="0" Type="16" Width="426">
                    <ValidValues/>
                  </GridColumn>
                </GridColumns>
              </specific>
            </item>
            <item uid="5" type="8" left="7" tab_order="0" width="120" top="226" height="14" visible="1" enabled="1" from_pane="0" to_pane="0" disp_desc="0" right_just="0" description="" linkto="" forecolor="-1" backcolor="-1" text_style="0" font_size="-1" supp_zeros="0" AffectsFormMode="1">
              <AutoManagedAttribute/>
              <specific caption="Available Batches"/>
            </item>
            <item uid="6" type="128" left="8" tab_order="0" width="427" top="248" height="178" visible="1" enabled="1" from_pane="0" to_pane="0" disp_desc="0" right_just="0" description="" linkto="" forecolor="-1" backcolor="-1" text_style="0" font_size="-1" supp_zeros="0" AffectsFormMode="1">
              <AutoManagedAttribute/>
              <specific SelectionMode="0" DataTable="DT_2" CollapseLevel="0">
                <RowHeaders Width="22"/>
                <GridColumns>
                  <GridColumn UniqueID="Col_0" Title="Col_0" Visible="1" Editable="1" AffectsFormMode="1" RightJustified="0" Type="16" Width="96">
                    <ValidValues/>
                  </GridColumn>
                  <GridColumn UniqueID="Col_1" Title="Col_1" Visible="1" Editable="1" AffectsFormMode="1" RightJustified="0" Type="16" Width="96">
                    <ValidValues/>
                  </GridColumn>
                  <GridColumn UniqueID="Col_2" Title="Col_2" Visible="1" Editable="1" AffectsFormMode="1" RightJustified="0" Type="16" Width="96">
                    <ValidValues/>
                  </GridColumn>
                  <GridColumn UniqueID="Col_3" Title="Col_3" Visible="1" Editable="1" AffectsFormMode="1" RightJustified="0" Type="16" Width="99">
                    <ValidValues/>
                  </GridColumn>
                </GridColumns>
              </specific>
            </item>
            <item uid="7" type="8" left="503" tab_order="0" width="120" top="226" height="14" visible="1" enabled="1" from_pane="0" to_pane="0" disp_desc="0" right_just="0" description="" linkto="" forecolor="-1" backcolor="-1" text_style="0" font_size="-1" supp_zeros="0" AffectsFormMode="1">
              <AutoManagedAttribute/>
              <specific caption="Selected Batches"/>
            </item>
            <item uid="8" type="128" left="505" tab_order="0" width="358" top="248" height="168" visible="1" enabled="1" from_pane="0" to_pane="0" disp_desc="0" right_just="0" description="" linkto="" forecolor="-1" backcolor="-1" text_style="0" font_size="-1" supp_zeros="0" AffectsFormMode="1">
              <AutoManagedAttribute/>
              <specific SelectionMode="0" DataTable="DT_3" CollapseLevel="0">
                <RowHeaders Width="22"/>
                <GridColumns>
                  <GridColumn UniqueID="Col_0" Title="Col_0" Visible="1" Editable="1" AffectsFormMode="1" RightJustified="0" Type="16" Width="106">
                    <ValidValues/>
                  </GridColumn>
                  <GridColumn UniqueID="Col_1" Title="Col_1" Visible="1" Editable="1" AffectsFormMode="1" RightJustified="0" Type="16" Width="106">
                    <ValidValues/>
                  </GridColumn>
                  <GridColumn UniqueID="Col_2" Title="Col_2" Visible="1" Editable="1" AffectsFormMode="1" RightJustified="0" Type="16" Width="106">
                    <ValidValues/>
                  </GridColumn>
                </GridColumns>
              </specific>
            </item>
            <item uid="9" type="4" left="452" tab_order="0" width="25" top="277" height="19" visible="1" enabled="1" from_pane="0" to_pane="0" disp_desc="0" right_just="0" description="" linkto="" forecolor="-1" backcolor="-1" text_style="0" font_size="-1" supp_zeros="0" AffectsFormMode="1">
              <AutoManagedAttribute/>
              <specific caption="&gt;"/>
            </item>
            <item uid="10" type="4" left="452" tab_order="0" width="25" top="300" height="19" visible="1" enabled="1" from_pane="0" to_pane="0" disp_desc="0" right_just="0" description="" linkto="" forecolor="-1" backcolor="-1" text_style="0" font_size="-1" supp_zeros="0" AffectsFormMode="1">
              <AutoManagedAttribute/>
              <specific caption="&lt;"/>
            </item>
          </action>
        </items>
        <ChooseFromListCollection>
          <action type="add">
            <ChooseFromList UniqueID="-1" ObjectType="-1" MultiSelection="0" IsSystem="1"/>
          </action>
        </ChooseFromListCollection>
        <DataBrowser/>
        <Settings Enabled="0"/>
      </form>
    </action>
  </forms>
</Application>