<?xml version="1.0" encoding="UTF-16" ?>
<Application>
  <forms>
    <action type="add">
      <form appformnumber="frm_MAX_007" FormType="frm_MAX_007" type="0" BorderStyle="0" uid="frm_MAX_007" title="Journal Import Integration- Setup" visible="1" default_button="" pane="0" color="0" left="299" top="34" width="500" height="186" client_width="474" client_height="137" AutoManaged="0" SupportedModes="15" ObjectType="" modality="0">
        <datasources>
          <dbdatasources>
            <action type="add">
              <datasource tablename="@SJE_SETUP"/>
            </action>
          </dbdatasources>
          <userdatasources>
            <action type="add"/>
          </userdatasources>
        </datasources>
        <Menus/>
        <items>
          <action type="add">
            <item uid="1" type="8" left="7" tab_order="0" width="140" top="7" height="14" visible="1" enabled="1" from_pane="0" to_pane="0" disp_desc="0" right_just="0" description="" linkto="4" forecolor="-1" backcolor="-1" text_style="0" font_size="-1" supp_zeros="0" AffectsFormMode="1">
              <AutoManagedAttribute/>
              <specific caption="Import File Path"/>
            </item>
            <item uid="2" type="4" left="79" tab_order="0" width="65" top="107" height="19" visible="1" enabled="1" from_pane="0" to_pane="0" disp_desc="0" right_just="0" description="" linkto="" forecolor="-1" backcolor="-1" text_style="0" font_size="-1" supp_zeros="0" AffectsFormMode="1">
              <AutoManagedAttribute/>
              <specific caption="Cancel"/>
            </item>
            <item uid="3" type="4" left="9" tab_order="0" width="65" top="107" height="19" visible="1" enabled="1" from_pane="0" to_pane="0" disp_desc="0" right_just="0" description="" linkto="" forecolor="-1" backcolor="-1" text_style="0" font_size="-1" supp_zeros="0" AffectsFormMode="1">
              <AutoManagedAttribute/>
              <specific caption="Submit"/>
            </item>
            <item uid="4" type="16" left="176" tab_order="0" width="260" top="7" height="14" visible="1" enabled="0" from_pane="0" to_pane="0" disp_desc="0" right_just="0" description="" linkto="" forecolor="-1" backcolor="-1" text_style="0" font_size="-1" supp_zeros="0" AffectsFormMode="1">
              <AutoManagedAttribute/>
              <specific TabOrder="0" IsPassword="0">
                <databind databound="1" table="@SJE_SETUP" alias="U_FilePath"/>
              </specific>
            </item>
            <item uid="15" type="8" left="7" tab_order="0" width="140" top="22" height="14" visible="1" enabled="1" from_pane="0" to_pane="0" disp_desc="0" right_just="0" description="" linkto="16" forecolor="-1" backcolor="-1" text_style="0" font_size="-1" supp_zeros="0" AffectsFormMode="1">
              <AutoManagedAttribute/>
              <specific caption="File Delimeter"/>
            </item>
            <item uid="16" type="113" left="176" tab_order="0" width="120" top="22" height="14" visible="1" enabled="1" from_pane="0" to_pane="0" disp_desc="1" right_just="0" description="" linkto="" forecolor="-1" backcolor="-1" text_style="0" font_size="-1" supp_zeros="0" AffectsFormMode="1">
              <AutoManagedAttribute/>
              <specific AffectsFormMode="1" TabOrder="0">
                <ValidValues>
                  <action type="add">
                    <ValidValue value="S" description="Semicolon"/>
                    <ValidValue value="C" description="Comma"/>
                    <ValidValue value="T" description="Tab"/>
                  </action>
                </ValidValues>
                <databind databound="1" table="@SJE_SETUP" alias="U_Delimiter"/>
              </specific>
            </item>
            <item uid="17" type="8" left="7" tab_order="0" width="140" top="38" height="14" visible="1" enabled="1" from_pane="0" to_pane="0" disp_desc="0" right_just="0" description="" linkto="18" forecolor="-1" backcolor="-1" text_style="0" font_size="-1" supp_zeros="0" AffectsFormMode="1">
              <AutoManagedAttribute/>
              <specific caption="Date Separtor"/>
            </item>
            <item uid="18" type="113" left="176" tab_order="0" width="120" top="37" height="14" visible="1" enabled="1" from_pane="0" to_pane="0" disp_desc="1" right_just="0" description="" linkto="" forecolor="-1" backcolor="-1" text_style="0" font_size="-1" supp_zeros="0" AffectsFormMode="1">
              <AutoManagedAttribute/>
              <specific AffectsFormMode="1" TabOrder="0">
                <ValidValues>
                  <action type="add">
                    <ValidValue value="-" description="-"/>
                    <ValidValue value="/" description="/"/>
                  </action>
                </ValidValues>
                <databind databound="1" table="@SJE_SETUP" alias="U_DateSep"/>
              </specific>
            </item>
            <item uid="19" type="8" left="7" tab_order="0" width="140" top="54" height="14" visible="1" enabled="1" from_pane="0" to_pane="0" disp_desc="0" right_just="0" description="" linkto="20" forecolor="-1" backcolor="-1" text_style="0" font_size="-1" supp_zeros="0" AffectsFormMode="1">
              <AutoManagedAttribute/>
              <specific caption="Date Format"/>
            </item>
            <item uid="20" type="113" left="176" tab_order="0" width="120" top="53" height="14" visible="1" enabled="1" from_pane="0" to_pane="0" disp_desc="1" right_just="0" description="" linkto="" forecolor="-1" backcolor="-1" text_style="0" font_size="-1" supp_zeros="0" AffectsFormMode="1">
              <AutoManagedAttribute/>
              <specific AffectsFormMode="1" TabOrder="0">
                <ValidValues>
                  <action type="add">
                    <ValidValue value="1" description="ddMMyyyy"/>
                    <ValidValue value="2" description="MMddYYYY"/>
                    <ValidValue value="3" description="YYYYMMdd"/>
                    <ValidValue value="4" description="YYYYddMM"/>
                  </action>
                </ValidValues>
                <databind databound="1" table="@SJE_SETUP" alias="U_DF1"/>
              </specific>
            </item>
            <item uid="11" type="4" left="437" tab_order="0" width="14" top="7" height="14" visible="1" enabled="1" from_pane="0" to_pane="0" disp_desc="0" right_just="0" description="" linkto="" forecolor="-1" backcolor="-1" text_style="0" font_size="-1" supp_zeros="0" AffectsFormMode="1">
              <AutoManagedAttribute/>
              <specific caption="..."/>
            </item>
          </action>
        </items>
        <ChooseFromListCollection>
          <action type="add">
            <ChooseFromList UniqueID="-1" ObjectType="-1" MultiSelection="0" IsSystem="1"/>
            <ChooseFromList UniqueID="CFL_2" ObjectType="4" MultiSelection="0" IsSystem="0"/>
            <ChooseFromList UniqueID="CFL_3" ObjectType="4" MultiSelection="0" IsSystem="0"/>
            <ChooseFromList UniqueID="CFL_4" ObjectType="4" MultiSelection="0" IsSystem="0"/>
            <ChooseFromList UniqueID="CFL_5" ObjectType="4" MultiSelection="0" IsSystem="0"/>
            <ChooseFromList UniqueID="CFL_6" ObjectType="4" MultiSelection="0" IsSystem="0"/>
          </action>
        </ChooseFromListCollection>
        <DataBrowser/>
        <Settings Enabled="0"/>
      </form>
    </action>
  </forms>
</Application>