<?xml version="1.0" encoding="UTF-16" ?>
<Application>
  <forms>
    <action type="add">
      <form appformnumber="frm_MAX_105" FormType="frm_MAX_105" type="0" BorderStyle="0" uid="frm_MAX_105" title="Batch Creation" visible="1" default_button="" pane="0" color="0" left="293" top="32" width="851" height="434" client_width="500" client_height="306" AutoManaged="0" SupportedModes="15" ObjectType="" modality="0">
        <datasources>
          <dbdatasources>
            <action type="add"/>
          </dbdatasources>
          <userdatasources>
            <action type="add"/>
          </userdatasources>
          <DataTables>
            <DataTable Uid="DT_0">
              <Columns>
                <Column Uid="Col_0" Type="1" MaxLength="254"/>
                <Column Uid="Col_1" Type="1" MaxLength="254"/>
                <Column Uid="Col_2" Type="1" MaxLength="254"/>
                <Column Uid="Col_3" Type="1" MaxLength="254"/>
              </Columns>
            </DataTable>
            <DataTable Uid="DT_1">
              <Columns>
                <Column Uid="Col_0" Type="1" MaxLength="254"/>
                <Column Uid="Col_1" Type="1" MaxLength="254"/>
                <Column Uid="Col_2" Type="1" MaxLength="254"/>
                <Column Uid="Col_3" Type="1" MaxLength="254"/>
              </Columns>
            </DataTable>
          </DataTables>
        </datasources>
        <Menus/>
        <items>
          <action type="add">
            <item uid="1" type="8" left="6" tab_order="0" width="200" top="6" height="14" visible="1" enabled="1" from_pane="0" to_pane="0" disp_desc="0" right_just="0" description="" linkto="" forecolor="-1" backcolor="-1" text_style="0" font_size="-1" supp_zeros="0" AffectsFormMode="1">
              <AutoManagedAttribute/>
              <specific caption="Rows from Documents"/>
            </item>
            <item uid="2" type="4" left="97" tab_order="0" width="65" top="375" height="19" visible="1" enabled="1" from_pane="0" to_pane="0" disp_desc="0" right_just="0" description="" linkto="" forecolor="-1" backcolor="-1" text_style="0" font_size="-1" supp_zeros="0" AffectsFormMode="1">
              <AutoManagedAttribute/>
              <specific caption=""/>
            </item>
            <item uid="3" type="4" left="9" tab_order="0" width="65" top="375" height="19" visible="1" enabled="1" from_pane="0" to_pane="0" disp_desc="0" right_just="0" description="" linkto="" forecolor="-1" backcolor="-1" text_style="0" font_size="-1" supp_zeros="0" AffectsFormMode="1">
              <AutoManagedAttribute/>
              <specific caption="Save"/>
            </item>
            <item uid="4" type="128" left="8" tab_order="0" width="828" top="25" height="196" visible="1" enabled="1" from_pane="0" to_pane="0" disp_desc="0" right_just="0" description="" linkto="" forecolor="-1" backcolor="-1" text_style="0" font_size="-1" supp_zeros="0" AffectsFormMode="1">
              <AutoManagedAttribute/>
              <specific SelectionMode="0" DataTable="DT_0" CollapseLevel="0">
                <RowHeaders Width="22"/>
                <GridColumns>
                  <GridColumn UniqueID="Col_0" Title="Col_0" Visible="1" Editable="1" AffectsFormMode="1" RightJustified="0" Type="16" Width="197">
                    <ValidValues/>
                  </GridColumn>
                  <GridColumn UniqueID="Col_1" Title="Col_1" Visible="1" Editable="1" AffectsFormMode="1" RightJustified="0" Type="16" Width="197">
                    <ValidValues/>
                  </GridColumn>
                  <GridColumn UniqueID="Col_2" Title="Col_2" Visible="1" Editable="1" AffectsFormMode="1" RightJustified="0" Type="16" Width="197">
                    <ValidValues/>
                  </GridColumn>
                  <GridColumn UniqueID="Col_3" Title="Col_3" Visible="1" Editable="1" AffectsFormMode="1" RightJustified="0" Type="16" Width="197">
                    <ValidValues/>
                  </GridColumn>
                </GridColumns>
              </specific>
            </item>
            <item uid="5" type="8" left="8" tab_order="0" width="80" top="232" height="14" visible="1" enabled="1" from_pane="0" to_pane="0" disp_desc="0" right_just="0" description="" linkto="" forecolor="-1" backcolor="-1" text_style="0" font_size="-1" supp_zeros="0" AffectsFormMode="1">
              <AutoManagedAttribute/>
              <specific caption="Batch Details"/>
            </item>
            <item uid="6" type="128" left="7" tab_order="0" width="807" top="249" height="116" visible="1" enabled="1" from_pane="0" to_pane="0" disp_desc="0" right_just="0" description="" linkto="" forecolor="-1" backcolor="-1" text_style="0" font_size="-1" supp_zeros="0" AffectsFormMode="1">
              <AutoManagedAttribute/>
              <specific SelectionMode="0" DataTable="DT_1" CollapseLevel="0">
                <RowHeaders Width="22"/>
                <GridColumns>
                  <GridColumn UniqueID="Col_0" Title="Col_0" Visible="1" Editable="1" AffectsFormMode="1" RightJustified="0" Type="16" Width="191">
                    <ValidValues/>
                  </GridColumn>
                  <GridColumn UniqueID="Col_1" Title="Col_1" Visible="1" Editable="1" AffectsFormMode="1" RightJustified="0" Type="16" Width="191">
                    <ValidValues/>
                  </GridColumn>
                  <GridColumn UniqueID="Col_2" Title="Col_2" Visible="1" Editable="1" AffectsFormMode="1" RightJustified="0" Type="16" Width="191">
                    <ValidValues/>
                  </GridColumn>
                  <GridColumn UniqueID="Col_3" Title="Col_3" Visible="1" Editable="1" AffectsFormMode="1" RightJustified="0" Type="16" Width="194">
                    <ValidValues/>
                  </GridColumn>
                </GridColumns>
              </specific>
            </item>
          </action>
        </items>
        <ChooseFromListCollection>
          <action type="add">
            <ChooseFromList UniqueID="-1" ObjectType="-1" MultiSelection="0" IsSystem="1"/>
          </action>
        </ChooseFromListCollection>
        <DataBrowser/>
        <Settings Enabled="0"/>
      </form>
    </action>
  </forms>
</Application>