<?xml version="1.0" encoding="UTF-16"?>
<Application>
  <forms>
    <action type="add">
      <form appformnumber="frm_Landing" FormType="frm_Landing" type="0" BorderStyle="0" uid="frm_Landing" title="Spot Location" visible="1" default_button="1" pane="0" color="0" left="309" top="37" width="280" height="331" client_width="909" client_height="476" AutoManaged="0" SupportedModes="15" ObjectType="UEA_OPDN" mode="3">
        <datasources>
          <DataTables />
          <dbdatasources>
            <action type="add">
              <datasource tablename="@EA_OPDN" />
              <datasource tablename="@EA_PDN1" />
              <datasource tablename="@EA_PDN2" />
            </action>
          </dbdatasources>
          <userdatasources>
            <action type="add">
              <datasource type="9" size="10" uid="FolderDS" />
              <datasource type="9" size="10" uid="FolderDS" />
              <datasource type="9" size="10" uid="FolderDS" />
              <datasource type="9" size="10" uid="FolderDS" />
              <datasource type="9" size="10" uid="FolderDS" />
              <datasource type="9" size="10" uid="FolderDS" />
              <datasource type="9" size="10" uid="FolderDS" />
              <datasource type="9" size="2" uid="FolderDS" />
            </action>
          </userdatasources>
        </datasources>
        <Menus />
        <items>
          <action type="add">
            <item top="265" left="12" width="65" height="19" AffectsFormMode="1" description="" disp_desc="0" enabled="1" from_pane="0" to_pane="0" linkto="" right_just="0" type="4" visible="1" uid="1" IsAutoGenerated="0">
              <specific caption="OK" />
            </item>
            <item top="265" left="87" width="65" height="19" AffectsFormMode="1" description="" disp_desc="0" enabled="1" from_pane="0" to_pane="0" linkto="" right_just="0" type="4" visible="1" uid="2" IsAutoGenerated="0">
              <specific caption="Cancel" />
            </item>
            <item top="15" left="92" width="65" height="20" AffectsFormMode="1" description="" disp_desc="0" enabled="1" from_pane="0" to_pane="0" linkto="" right_just="0" type="4" visible="1" uid="5" IsAutoGenerated="0">
              <specific caption="Delete Row" />
            </item>
            <item top="15" left="12" width="65" height="20" AffectsFormMode="1" description="" disp_desc="0" enabled="1" from_pane="0" to_pane="0" linkto="" right_just="0" type="4" visible="1" uid="4" IsAutoGenerated="0">
              <specific caption="Add Row" />
            </item>
            <item cellHeight="16" tab_order="0" titleHeight="20" top="46" left="12" width="224" height="193" AffectsFormMode="1" description="" disp_desc="0" enabled="1" from_pane="0" to_pane="0" linkto="" right_just="0" type="127" visible="1" uid="3" IsAutoGenerated="0">
              <specific layout="0" SelectionMode="0">
                <columns>
                  <action type="add">
                    <column backcolor="16777215" ChooseFromListIsAutoFill="0" font_size="-1" forecolor="-1" text_style="0" disp_desc="0" visible="1" AffectsFormMode="1" val_on="Y" IsAutoGenerated="0" val_off="N" title="#" width="25" editable="1" type="16" right_just="0" uid="#" sortable="0" />
                    <column backcolor="-1" ChooseFromListIsAutoFill="0" font_size="-1" forecolor="-1" text_style="0" disp_desc="0" visible="1" AffectsFormMode="1" val_on="Y" IsAutoGenerated="0" val_off="N" title="Spot" width="50" editable="1" type="16" right_just="0" uid="spt" sortable="0" />
                  </action>
                </columns>
              </specific>
            </item>
            <item cellHeight="23" tab_order="0" titleHeight="30" top="125" left="10" width="548" height="192" AffectsFormMode="1" description="" disp_desc="0" enabled="1" from_pane="2" to_pane="2" linkto="" right_just="0" type="127" visible="1" uid="30" IsAutoGenerated="0">
              <specific layout="0" SelectionMode="0">
                <columns>
                  <action type="add">
                    <column backcolor="-1" ChooseFromListIsAutoFill="0" font_size="-1" forecolor="-1" text_style="0" disp_desc="0" visible="1" AffectsFormMode="1" val_on="Y" IsAutoGenerated="0" val_off="N" title="Column" width="20" editable="0" type="16" right_just="0" uid="V_-1" sortable="1">
                      <databind databound="1" table="@EA_PDN2" alias="LineId" />
                    </column>
                    <column backcolor="-1" ChooseFromListIsAutoFill="0" font_size="-1" forecolor="-1" text_style="0" disp_desc="0" visible="1" AffectsFormMode="1" val_on="Y" IsAutoGenerated="0" val_off="N" title="File Path" width="250" editable="0" type="16" right_just="0" uid="0" sortable="1">
                      <databind databound="1" table="@EA_PDN2" alias="U_EA_FilePath" />
                    </column>
                    <column backcolor="-1" ChooseFromListIsAutoFill="0" font_size="-1" forecolor="-1" text_style="0" disp_desc="0" visible="1" AffectsFormMode="1" val_on="Y" IsAutoGenerated="0" val_off="N" title="File Name" width="250" editable="0" type="16" right_just="0" uid="1" sortable="1">
                      <databind databound="1" table="@EA_PDN2" alias="U_EA_FileName" />
                    </column>
                  </action>
                </columns>
              </specific>
            </item>
            <item top="128" left="635" width="65" height="19" AffectsFormMode="1" description="" disp_desc="0" enabled="1" from_pane="2" to_pane="2" linkto="" right_just="0" type="4" visible="1" uid="31" IsAutoGenerated="0">
              <specific caption="Browse" />
            </item>
            <item top="150" left="635" width="65" height="19" AffectsFormMode="1" description="" disp_desc="0" enabled="1" from_pane="2" to_pane="2" linkto="" right_just="0" type="4" visible="1" uid="32" IsAutoGenerated="0">
              <specific caption="Delete" />
            </item>
            <item top="172" left="635" width="65" height="19" AffectsFormMode="1" description="" disp_desc="0" enabled="1" from_pane="2" to_pane="2" linkto="" right_just="0" type="4" visible="1" uid="33" IsAutoGenerated="0">
              <specific caption="Display" />
            </item>
            <item top="445" left="748" width="120" height="19" AffectsFormMode="1" description="" disp_desc="0" enabled="1" from_pane="0" to_pane="0" linkto="" right_just="0" type="4" visible="0" uid="36" IsAutoGenerated="0">
              <specific caption="Copy to Packing" />
            </item>
          </action>
        </items>
        <ChooseFromListCollection>
          <action type="add">
            <ChooseFromList UniqueID="-1" ObjectType="-1" MultiSelection="0" IsSystem="1" />
            <ChooseFromList UniqueID="CFL_1" ObjectType="2" MultiSelection="0" IsSystem="0" />
            <ChooseFromList UniqueID="CFL_2" ObjectType="2" MultiSelection="0" IsSystem="0" />
            <ChooseFromList UniqueID="CFL_3" ObjectType="4" MultiSelection="1" IsSystem="0" />
            <ChooseFromList UniqueID="CFL_31" ObjectType="4" MultiSelection="1" IsSystem="0" />
            <ChooseFromList UniqueID="CFL_4" ObjectType="64" MultiSelection="0" IsSystem="0" />
          </action>
        </ChooseFromListCollection>
        <DataBrowser BrowseBy="" />
        <Settings MatrixUID="29" Enabled="0" EnableRowFormat="1" />
      </form>
    </action>
  </forms>
</Application>